A Madrid
B [dead]
C London
D Austin
E Dallas
F Vancouver
G Delhi
H Oslo
I Moscow
J Seoul
K [dead]
L [dead]
M Baltimore
N [dead]
O Naha
P [dead]
Q Rome
R [dead]
S Beijing
T Sydney
U [dead]
V [dead]
W Honolulu
X Lagos
Y [dead]
Z Shanghai
