.........
----------------------------------------------------------------------
Ran 9 tests in 0.002s

OK
Name               Stmts   Miss Branch BrPart  Cover   Missing
--------------------------------------------------------------
Diplomacy.py          73      0     30      2    98%   55->58, 61->85
TestDiplomacy.py      85      0      0      0   100%
--------------------------------------------------------------
TOTAL                158      0     30      2    99%
