A Madrid
B Austin
C London
D Bangkok
E Paris
F Dubai
G Singapore
H KulaLumpur
I NewYork
J Barcelona
K Rome
L Osaka
M Agra
N LasVegas
O LosAngeles
P Shanghai
Q Pattaya
R Seoul
S Amsterdam
T Miami
U Mecca
V Prague
W Mumbai
X Guangzhou
Y Taipei
Z Antalya
