......
----------------------------------------------------------------------
Ran 6 tests in 0.001s

OK
Name               Stmts   Miss Branch BrPart  Cover   Missing
--------------------------------------------------------------
Diplomacy.py          97      3     56      3    96%   89-91, 33->exit, 83->89, 113->112
TestDiplomacy.py      36      0      2      1    97%   60->exit
--------------------------------------------------------------
TOTAL                133      3     58      4    96%
